<?xml version="1.0" encoding="UTF-8"?>
<svg id="Layer_2" data-name="Layer 2" xmlns="http://www.w3.org/2000/svg" viewBox="0 0 50 50">
  <defs>
    <style>
      .cls-1 {
        fill: #fff;
      }

      .cls-2 {
        fill: #c41034;
      }
    </style>
  </defs>
  <g id="Layer_1-2" data-name="Layer 1">
    <g>
      <circle class="cls-2" cx="25" cy="25" r="25"/>
      <g>
        <path class="cls-1" d="m28.1,25.83c-.77-.19-1.34.02-1.79.51-.69.75-1.36,1.52-2.02,2.29-.31.37-.26.91.07,1.28.09.09.1.25.18.36.09.14.18.35.32.39.14.04.39-.03.48-.14.2-.24.36-.53.48-.82.14-.31-.13-.64-.47-.61-.07,0-.14.03-.28.06.27-.31.5-.57.73-.83.39-.44.77-.9,1.18-1.33.32-.34.6-.37.96-.18.52.28.75.4.56,1.04-.27.92-.6,1.82-.93,2.73-.04-.25-.13-.45-.38-.51-.21-.05-.39.02-.5.2-.14.23-.28.47-.41.71-.11.2-.09.4.08.56.17.16.36.16.56.07.09-.04.22-.05.31-.03.55.13,1.04-.12,1.22-.66.3-.87.6-1.74.89-2.61.24-.72.22-1.39-.38-1.95-.04-.04-.06-.14-.05-.2.11-.59.23-1.17.35-1.79,1.82.99,3.26,2.38,4.36,4.24-.28,0-.5,0-.71,0-1.29,0-2.11.81-2.13,2.09,0,.08,0,.15-.02.26-.36,0-.71,0-1.05,0-1.3,0-1.95.58-2.1,1.86,0,.03-.01.06-.03.13h-.36c-4.44,0-8.89,0-13.33,0-.78,0-.97-.22-.81-.97.71-3.37,2.6-5.89,5.59-7.6.06-.03.12-.06.19-.09-.1.51-.23,1.01-.3,1.51-.06.47-.06.95-.06,1.42,0,.19-.05.29-.21.39-.74.49-1.04,1.4-.76,2.23.27.81,1.08,1.37,1.92,1.32.89-.05,1.63-.67,1.82-1.53.25-1.11-.5-2.15-1.66-2.35-.06,0-.11-.01-.2-.02-.03-1.21.09-2.37.71-3.43.05-.09.16-.17.26-.21,2.59-.87,5.16-.8,7.71.2.08.03.18.14.17.21-.04.59-.1,1.17-.16,1.79Z"/>
        <path class="cls-1" d="m18.35,16.83c0-3.12,2.51-5.62,5.62-5.62,3.11,0,5.63,2.53,5.62,5.63,0,3.09-2.53,5.61-5.62,5.61-3.11,0-5.62-2.51-5.62-5.62Z"/>
        <path class="cls-1" d="m31.7,31.89c0-.44,0-.83,0-1.21,0-.69.43-1.13,1.12-1.14,1.25,0,2.5,0,3.75,0,.68,0,1.12.45,1.12,1.14,0,.39,0,.79,0,1.21.67,0,1.31,0,1.94,0,.15,0,.29,0,.44.02.46.07.77.41.77.87,0,1.87,0,3.74,0,5.61,0,.51-.37.88-.89.88-3.51,0-7.02,0-10.53,0-.52,0-.89-.36-.89-.88-.01-1.87-.01-3.74,0-5.61,0-.54.38-.88.95-.89.62,0,1.24,0,1.86,0,.1,0,.21,0,.35,0Zm3.78,1.94h-1.57v1h-.97v1.53h.99v.98h1.55v-.99h.98v-1.54h-.98v-.98Zm1.29-1.95c0-.41,0-.79,0-1.17,0-.18-.07-.24-.24-.24-.21,0-.43,0-.64,0-.99,0-1.98,0-2.97,0-.1,0-.27.1-.27.15-.02.41-.01.83-.01,1.24h4.13Z"/>
        <path class="cls-1" d="m18.35,29.23c0-.57.45-1.02,1.01-1.01.56,0,1.01.46,1,1.02,0,.55-.45,1-1,1-.56,0-1.02-.45-1.02-1.01Z"/>
      </g>
    </g>
  </g>
</svg>